505 361 142
939 921 174
233 914 179
918 778 179
429 385 134
180 277 128
789 788 29
611 171 144
823 946 179
216 781 171
830 251 171
80 195 125
890 818 179
626 994 179
604 142 144
541 991 179
244 464 144
873 206 179
394 550 142
785 309 171
511 551 137
22 893 179
445 413 134
214 377 144
72 554 144
446 224 144
336 657 145
261 106 128
559 883 179
485 836 171
147 892 179
135 398 144
597 239 144
626 782 171
452 875 179
845 326 171
592 375 142
660 235 145
522 364 142
516 819 171
466 211 144
341 344 126
124 915 179
451 291 144
524 23 144
51 340 144
521 570 137
293 110 128
23 897 179
35 428 144
910 72 179
129 96 122
674 623 145
302 386 144
401 188 144
386 600 142
295 175 128
545 771 171
741 603 171
919 673 179
221 623 144
671 538 145
619 162 144
3 780 171
851 627 171
69 416 144
63 279 128
136 276 128
660 147 145
273 517 144
523 134 144
854 858 104
244 736 171
596 224 144
164 344 144
318 788 171
162 271 128
186 41 125
188 187 107
470 593 142
15 808 171
361 3 144
561 398 142
911 144 179
254 283 123
277 855 171
187 950 179
498 34 144
254 242 110
815 311 171
217 431 144
802 616 171
893 454 179
501 781 171
787 750 153
630 184 144
634 312 144
192 556 144
517 536 124
261 957 179
196 782 171
177 360 144
206 125 125
181 451 144
908 181 179
987 581 179
867 483 171
251 39 128
492 193 144
136 854 171
187 346 144
272 725 171
357 532 142
58 247 128
418 422 41
508 803 171
460 400 134
172 402 144
746 394 171
568 193 144
165 3 122
399 759 171
121 620 144
990 945 143
258 888 179
540 38 144
861 126 171
208 612 144
110 246 128
9 922 179
871 288 179
701 178 145
970 998 143
372 661 145
205 819 171
853 768 153
906 997 174
67 233 128
478 596 142
371 969 179
639 380 142
252 804 171
864 883 179
576 671 145
581 826 171
179 177 32
678 656 145
865 862 148
590 995 179
591 82 144
694 765 171
635 418 142
221 310 128
9 386 144
620 270 144
57 272 128
808 18 171
310 889 179
914 45 179
568 81 144
749 19 171
25 887 179
410 260 144
175 169 125
178 347 144
274 903 179
541 699 145
965 34 179
943 169 179
379 149 144
697 390 145
50 496 144
175 591 144
19 911 179
791 423 171
50 851 171
507 631 137
944 673 179
299 95 128
616 913 179
740 260 171
179 165 125
930 618 179
855 800 135
385 418 134
632 596 132
892 754 179
223 198 120
172 23 125
216 959 179
644 402 142
609 437 142
658 987 179
11 441 144
452 534 142
470 592 142
435 301 144
329 527 142
980 454 179
383 939 179
557 551 137
391 240 144
680 326 145
301 999 179
414 753 171
46 751 171
549 373 142
801 426 171
212 576 144
188 921 179
218 822 171
179 822 171
739 633 171
38 270 128
445 706 171
81 5 116
195 791 171
831 477 171
832 516 171
250 247 110
92 404 144
434 666 145
4 946 179
588 559 119
323 335 144
203 595 144
270 765 171
870 277 171
997 365 179
883 54 179
192 577 144
538 252 144
205 932 179
751 217 171
373 569 142
938 602 179
876 479 179
361 513 142
551 65 144
233 87 128
525 387 142
608 738 171
616 399 142
307 877 179
371 326 144
441 958 179
945 605 179
959 810 179
583 368 142
513 371 142
754 593 171
308 120 128
115 416 144
270 11 128
126 16 119
870 601 171
590 866 171
943 527 179
872 202 179
975 825 179
386 661 145
887 869 179
300 536 144
137 233 128
221 991 179
421 555 142
927 275 179
616 562 132
5 164 122
777 558 171
484 31 144
850 610 171
384 217 144
108 628 144
138 115 122
192 909 179
997 816 179
25 512 144
447 996 179
899 21 179
54 261 128
553 773 171
946 101 179
289 679 145
720 176 171
645 402 142
942 850 179
258 72 128
937 810 179
241 135 128
662 134 145
425 985 179
757 469 171
705 886 179
554 487 142
443 450 116
585 156 144
411 63 144
678 137 145
367 669 145
