267729 689699
878615 988993
697090 183817
939496 347723
425199 298513
389082 47063
456468 17804
422586 474446
985760 14269
226767 31183
296348 362201
493134 71830
542876 311729
934610 355214
213179 256197
861734 898774
547776 177564
96128 133953
767977 786292
359337 963155
156908 209785
182175 772643
77624 43828
119836 766862
105360 611884
25696 373845
324735 395480
964130 105782
105694 736418
292284 731546
836619 177918
231683 185190
25042 764486
937383 231020
851832 124509
98415 230891
486409 602372
354598 789247
470521 430174
758902 736485
90499 877315
823850 748160
371178 821734
80146 8141
397549 243644
869993 50527
776250 520075
12920 632261
206640 996991
970476 5631
233779 752508
262570 850230
546866 56072
555686 941773
621414 444281
866134 82177
171744 989475
285572 104956
999434 698012
387515 334479
83576 212520
393965 336338
61185 809951
438114 491798
130606 753583
793138 23127
789013 618297
697997 823565
599348 162296
262302 645458
769659 436895
802227 392317
412836 477773
286822 819313
574996 551772
56926 494350
370833 99476
137912 927059
386052 661430
995936 844156
473215 589693
718415 802378
797923 62660
838785 206469
808490 574824
744093 521873
98452 888377
322060 568113
994247 881560
77521 427043
458771 273771
861239 182356
525054 40310
679533 923353
141915 793987
238466 682116
867199 211230
477161 373515
69598 192273
803715 871710
359857 218068
630602 822179
324683 210160
746424 362792
551091 292846
224352 649285
215195 838787
933353 238340
16371 971962
516844 141137
358857 857463
154474 871487
553302 285121
901993 675476
49686 718778
571416 13570
244446 882612
664126 172674
244893 237445
814385 620044
328730 129752
146221 329262
161439 659914
93620 279516
611714 750143
509244 128001
579391 106401
351779 189319
791737 284215
868153 262470
469338 295558
906271 657777
598644 309664
693949 806114
541085 919045
464277 939948
171971 859181
382717 106762
847944 941503
979500 672629
130874 109527
799659 221761
816031 99385
330615 966006
569745 721623
342390 488731
890542 794761
759096 910885
203513 159290
149553 464523
614517 373581
385071 420641
296950 991361
557150 167042
818267 395322
316374 997645
93135 29341
339109 202796
430372 695165
406511 605062
212559 955983
558776 27282
176165 493605
183169 500196
299486 46774
268587 762106
819716 101528
328292 592401
669577 923260
982443 924173
727829 524852
164589 803701
813710 130693
76391 16511
871029 11089
229912 516031
264674 997602
846886 216409
951807 29423
940444 204430
489620 257096
619521 274070
564810 472771
697053 518580
295373 45511
650867 628264
773058 883529
265532 955096
309193 417278
946949 5014
632666 582693
163647 468989
464833 588819
120010 141636
962218 746155
842537 562468
475394 285594
273995 464610
177124 150282
107611 589877
560420 298705
180053 105090
717537 283774
375547 287560
354434 7135
910974 817032
384236 531204
497500 728481
509534 510527
320718 166158
