1 1 1
1 2 2
1 3 8
1 4 8
1 5 8
1 6 9
1 7 17
1 8 17
1 9 20
1 10 20
571 430 142
15 562 144
504 921 179
333 370 126
643 687 145
72 368 144
841 840 42
217 584 144
118 718 171
157 286 128
233919 866165 525
596962 692190 509
362084 381316 423
694920 690135 442
791756 144463 509
565743 383904 470
374988 930686 525
989330 333715 525
476495 85082 449
275159 84815 443
742801 746197 349
396905 187130 443
90836 522683 470
823003 33821 509
115346 384022 443
330476 455956 449
64224 130152 354
955789 452032 525
687707 804151 504
114165 979687 525
488296 722338 509
945123 757 525
28355 857920 525
808440 675156 504
665903 214551 509
134362 372742 443
907812 928247 476
929695 625349 525
778135 33111 509
341119 677 443
477832 946502 525
907690 133494 525
951215 828277 525
663624 558544 509
735878 789150 468
126399 581075 470
799545 233841 509
351674 707115 509
703540 817550 504
334119 290208 384
312078 173914 443
503464 216686 449
580471 426403 470
455300 196879 449
185013 293155 443
110054 179189 383
310820 145711 443
388640 211150 443
442952 155177 449
371558 287279 441
116569 27880 354
790525 998757 525
834125 20768 509
698157 221547 509
299184 28100 443
347290 652780 509
878461 108318 525
932101 856232 476
473706 53446 449
225603 145692 386
835205 220055 509
478707 622491 470
24693 804052 509
405614 576656 470
381858 357550 423
527122 15000 470
866050 71854 525
704224 287245 509
541513 577293 452
793551 395761 509
958382 909519 507
459525 62313 449
749255 971188 525
217232 415645 449
82786 2784 351
467998 521852 470
406695 949044 525
917955 88068 525
8412 55437 340
733909 969966 525
392096 740769 509
68258 74449 325
435278 273348 449
232605 379864 441
756025 992368 525
819181 759307 468
365693 220762 443
584119 94069 470
671487 618578 509
859597 969831 507
615624 310147 470
341322 924754 525
46211 990455 525
796414 330025 509
418259 918468 525
18556 827306 509
843483 434737 525
575425 397729 470
990902 833135 525
884467 697198 525
70333 519955 470
391837 334942 441
155675 494882 449
540281 649859 509
104846 102152 310
146519 218665 386
52887 131975 354
637597 195935 509
768139 708827 468
603333 963775 525
658374 319735 509
183544 105402 383
402464 289863 441
577622 210302 470
880006 35529 525
674621 843482 525
751199 210132 509
407413 698437 509
737576 160748 509
293680 542009 470
239245 962556 525
930050 920314 476
918895 365894 525
805692 759966 468
353308 989257 525
295589 376118 441
576055 11875 470
845169 516927 525
537552 978044 525
462846 552786 470
165464 222379 386
817987 587466 509
663763 271902 509
338556 788129 509
616987 730629 509
974360 781140 525
376841 86764 443
365877 470101 449
279736 450942 449
889192 422885 525
827258 23864 509
347534 826734 509
548182 281948 470
388281 956376 525
127609 405086 443
509543 365270 449
217010 568309 470
994544 815092 525
809456 253560 509
146965 636151 509
497919 764145 509
300440 131570 443
124573 145068 375
73334 307888 443
380358 640163 509
442880 552709 470
210054 330961 443
159085 89509 383
127840 153429 375
351424 377242 423
77685 958183 525
559343 226327 470
851957 247253 525
63350 114039 354
459523 553811 470
869859 204497 525
951686 613843 525
622021 972207 525
457091 126286 449
657944 863273 525
807952 795546 468
155189 790779 509
611071 11479 470
292082 196831 443
358324 816711 509
898998 777513 525
38521 402095 443
933837 905498 476
300829 920149 525
203945 242453 443
142796 339296 443
511634 138740 449
675231 660967 442
761719 251168 509
272627 384437 441
650421 180566 509
962183 784606 525
250898 799762 509
755799 393866 509
771803 621890 509
500270 88118 449
420656 935005 525
353306 958184 525
622429 514127 452
246332 524833 470
622493 696595 509
292858 955050 525
565073 49889 470
347591 434641 449
605995 719328 509
79929 459409 449
649994 261183 509
531469 661006 509
228229 907930 525
358158 834734 509
356069 59193 443
319916 473474 449
398068 456363 449
884057 469786 525
52789 538057 470
539430 94813 470
8188 446181 449
992899 123506 525
634781 579128 509
332918 440658 449
423535 118526 449
253322 646329 509
993906 218572 525
80291 828450 509
79495 784972 509
852398 557448 525
693303 298683 509
397388 411395 449
436907 32150 449
901402 161964 525
551712 536117 452
436316 515739 470
125270 61188 354
741347 605925 509
736449 486524 509
915571 788080 525
919050 758923 525
293263 754020 509
965814 34420 525
61533 62336 317
77192 422727 449
664371 949384 525
99173 497061 449
602348 831402 509
146413 955480 525
783528 852653 525
80403 466451 449
494949 124375 449
974738 478434 525
139014 112847 349
957879 597286 525
916111 29228 525
577587 382360 470
129965 401101 443
480737 91840 449
596491 93594 470
487957 161660 449
870844 63138 525
718779 531391 509
916627 9546 525
696947 366801 509
439197 212410 449
205527 347640 443
460412 574893 470
838591 334995 525
338198 87449 443
3360 71400 340
946332 777265 525
170897 116481 383
290844 384714 441
147726 970874 525
350198 896521 525
621469 532482 452
952424 532205 525
750218 860452 525
210415 770555 509
161388 884600 525
102603 931110 525
286816 631556 509
722493 936511 525
7510 385915 443
383331 602748 470
522796 998922 525
51300 891883 525
