440369 663198
449781 826669
776699 206550
543716 207610
753148 868205
970478 469600
519130 989241
597837 265842
763561 233847
872588 719963
28386 826488
932216 341498
553065 406178
680644 17556
734887 485189
225154 529139
309791 197029
8316 248506
46815 369338
243579 308798
627781 866517
773217 240206
718407 550433
593604 375735
842116 508551
106981 46936
121796 711195
157247 225286
759674 803063
221938 430372
884305 984137
3626 798215
940107 990626
484703 473319
694792 643057
450276 695889
741708 30942
99455 910264
513022 966464
172901 689958
781619 961109
6768 692746
47048 563183
807525 663656
236325 198283
387446 766414
487479 11876
669331 394834
883974 211643
882337 365771
539462 223827
536884 171677
877928 525981
821429 862163
6040 535039
164550 874188
972079 1588
350205 764240
966872 209514
83300 992347
360 410014
442309 402799
564439 307427
162561 677587
967368 689935
674572 301767
867248 713313
827720 28864
447547 13262
790734 58491
461661 947177
552143 737574
383347 899245
962190 44578
258248 587290
489425 465322
840569 39534
720461 472303
564720 950220
830108 236978
483973 517806
243239 486103
455185 715128
525101 597297
726139 920292
910752 768073
804827 448791
978865 216718
967792 264559
732877 922883
853205 506170
547602 163972
374229 86520
608646 918984
749971 194862
607952 603351
425044 382248
496520 9273
800838 867517
581588 735862
157168 879514
530394 73381
913556 491670
335558 266719
142492 661918
443230 25481
511025 841100
988662 450387
614683 536745
43435 63405
200010 557012
952789 519429
921178 861601
945823 153948
359647 80261
370739 890486
740285 514350
834024 39680
47493 955267
707287 306898
478546 608878
153201 67071
289317 820375
631762 269904
290445 409815
184658 534668
663490 553107
899903 30700
396643 909267
281061 782398
654889 684041
365272 849069
884032 964739
988606 98349
469154 852602
683753 929834
387070 379474
145005 565455
144287 417388
831508 781165
989981 256249
162592 846682
867340 650946
462868 939703
311024 777113
586524 140969
679558 177151
80388 860264
603966 97032
178234 432941
411087 13214
270891 322197
451368 256232
674018 63354
100286 658249
248326 579265
397584 918875
516702 901711
762118 496191
499125 705733
787523 715440
157420 308420
959186 340638
142617 953987
778548 353992
832834 726992
338603 365146
894923 268952
239173 856103
751930 284791
904475 44616
101408 893363
514120 115100
607000 914170
18738 505564
204981 982918
711121 719626
467302 769359
684188 120614
598873 55271
6960 727033
18873 25697
414332 448699
425567 261132
935180 501938
474754 333415
724503 277114
200374 83254
528328 447345
466655 707690
383847 485158
926619 961884
730349 951610
874565 245785
627058 348823
282845 643576
424742 240616
524522 270215
692613 759397
788893 213824
199469 852386
327176 800076
723621 743036
176551 196124
307363 69999
350082 26921
19576 909765
318944 479695
650126 890641
336175 301389
89785 125736
670312 883415
196893 169915
127620 991628
291105 998595
940252 894487
631824 725124
902432 884474
898734 157939
33204 382433
349586 764124
773977 218669
162976 772995
260835 101090
207882 190745
383206 565383
331951 269274
403980 575027
921892 680042
