2045 3039
5708 8730
7774 8978
1390 3515
6921 8911
6642 9746
2983 5653
6023 7077
1666 8075
6388 7691
7467 9562
2376 6038
4088 5268
4585 8076
3561 6894
3218 5041
4877 5005
4375 7427
7317 8977
5202 5691
2898 8245
2475 4944
3585 8369
4673 4908
7907 8702
6063 6966
5241 7861
4198 9433
3262 5377
1233 4523
5370 6228
1848 6357
6938 9673
4221 5397
3123 5237
1442 5748
4118 6648
1260 3440
5574 5761
1836 6485
7567 9652
6119 7306
4023 7886
3932 4863
4386 6917
3417 5928
1356 3950
4356 5693
3565 7916
3685 8215
5231 9062
6526 7257
1708 6065
4930 6195
3587 9975
1123 8899
4992 9255
3100 8778
3931 5910
6466 8477
6919 8623
2999 5918
6197 9833
4336 8770
2332 4057
2295 7111
6944 8100
2563 9419
4318 8464
5143 5707
4363 6056
7159 9720
1387 3549
4107 5691
3331 8301
6866 9425
3580 4564
5275 5818
4130 4503
6429 9960
4655 9631
7858 8069
3671 6892
3424 5145
5065 6447
5588 8660
5696 8806
6262 7128
1051 5209
1531 3488
1257 8611
7795 8283
1530 1659
6897 7697
2210 6647
3695 5658
4384 8349
7083 9372
5602 8795
2570 8327
4559 9906
1185 3090
6585 9091
4617 5323
4613 7319
3878 7757
1504 7350
6572 7129
2037 8341
3539 4930
7444 8458
6912 7032
6031 7790
2710 8649
2012 4893
3507 9432
5852 7194
6136 6805
7607 8247
1643 4799
5298 6897
7431 7726
5311 6533
5361 5671
2831 7118
1720 2087
5540 8800
6384 8367
3808 6411
4668 5696
2962 4995
1974 9458
4998 5314
6738 9670
5174 9635
6707 8223
1024 7731
2524 6451
7751 9191
1413 6595
7261 9263
5832 8727
4378 8671
7387 7599
1533 7431
5090 6486
5710 6564
3944 7680
4474 9128
1360 4763
6881 9004
2985 4585
4667 8309
5072 7294
3166 9328
5576 8245
7597 9956
7483 8466
7488 9040
6017 6677
2074 4641
1109 5950
4855 7412
6205 6260
5966 9541
1863 4128
7786 7945
2019 9680
3742 7347
2842 8877
2568 9147
4002 5835
5538 8168
3385 8990
4316 8728
5934 9463
6621 7132
5570 8170
5908 6016
1784 8976
2385 9081
5821 6529
4321 6831
1545 3785
2701 3615
2186 9129
1988 5332
5227 5409
4176 4359
7277 7336
6156 7363
2511 7333
2423 9847
7657 8857
1793 4741
4822 7579
5426 9293
6946 7872
3050 6212
7472 8282
1678 9761
6822 7512
5597 8549
1980 3368
1716 7781
2530 9883
1999 4408
3675 9873
6650 9883
3725 7256
7969 9481
4957 7987
1437 4487
7829 9699
1514 9468
2613 5169
7299 8670
5757 7371
4942 6383
5250 6380
3194 9600
6266 6687
4796 7927
7746 9126
6015 9695
6852 8644
7480 8042
7625 7772
2422 9762
1149 6405
5532 9633
3392 4216
7728 8664
4626 9889
6191 8913
1068 4020
7759 9841
6983 7485
6890 9893
1918 5768
4980 5395
6692 9739
7019 9089
4670 8703
1363 5878
6390 7042
3368 5088
4857 7660
5215 5548
3111 7666
