743247 245852 509
865176 443498 525
640674 653462 416
832896 794836 468
580177 402968 470
823954 371241 509
24764 447792 449
598622 479840 470
639550 244818 509
393067 630856 509
609193 258274 470
410329 796425 509
369548 902992 525
143247 847256 525
603298 935883 525
898097 836793 525
309204 194273 443
87799 332591 443
239870 653705 509
470122 486279 413
692409 622197 509
737292 937591 525
968292 9590 525
932118 175752 525
973766 361146 525
951005 89846 525
318062 383283 441
190211 166332 365
439381 332324 449
415028 392395 449
131429 928775 525
287995 558712 470
46869 874548 525
495172 115850 449
788618 227195 509
474639 603335 470
94582 965348 525
370842 802949 509
534945 151001 470
487479 670094 509
300812 231169 407
608851 198267 470
568205 921634 525
957732 475734 525
412633 971552 525
977327 434366 525
500606 116994 449
757250 502374 509
317376 877803 525
809745 953992 525
826428 626815 504
32770 290986 443
85133 826155 509
524935 294002 470
984199 202646 525
951681 567686 525
254493 367432 441
42399 964292 525
951399 128800 525
289727 218026 443
115664 189128 383
650553 675668 442
338869 587245 470
837462 600430 509
605674 233654 470
58838 705579 509
220026 436143 449
608508 799103 509
323827 210157 443
113196 810288 509
626516 25324 509
232146 199335 443
119345 779894 509
139744 790942 509
323306 85189 443
605317 46418 470
382626 349677 423
361093 65897 443
398440 429357 449
52303 176859 383
893326 10670 525
12487 141740 354
447547 718677 509
908426 153119 525
208162 185745 373
326273 152971 443
127542 720019 509
341649 409963 441
680464 660036 442
828331 682937 504
378005 614607 470
401941 299938 441
869292 191964 525
961698 370929 525
622718 25941 470
361713 426723 449
295861 973674 525
91234 544994 470
894692 6858 525
14931 449642 449
717580 542408 509
670824 73425 509
252390 565808 470
53083 65611 335
673298 259078 509
318422 635489 509
108888 764454 509
955209 250133 525
510711 275715 449
334181 977118 525
386335 913145 525
869846 903728 445
621927 452319 470
830892 239730 509
351362 450618 449
870824 101764 525
433878 431246 387
309318 269924 407
88296 30228 351
157263 640110 509
298325 204877 443
178871 766018 509
795735 119193 509
382108 601434 470
234619 909266 525
133213 307055 443
78236 69572 351
9020 563735 470
627288 415983 509
139019 695426 509
511921 238113 449
737583 391563 509
138139 49004 354
349252 779565 509
670517 973084 525
851721 153241 525
633961 264465 509
95858 616587 470
649938 951758 525
109598 94760 354
194181 463167 449
799675 193974 509
497403 840280 525
43788 828827 509
912261 379841 525
121513 120457 287
924030 656402 525
348693 434408 449
197324 688942 509
714582 549530 509
506007 431223 444
10745 97795 351
329445 102849 443
412762 523080 470
624557 687831 509
575382 116797 470
671132 431784 509
311959 681571 509
349648 793050 509
632962 330200 509
554937 671087 509
712273 595423 509
233789 771277 509
93179 18560 351
157666 330520 443
170159 628673 509
883362 35393 525
144515 997776 525
204935 201541 342
753194 518679 509
383606 377368 379
722248 629641 504
356561 450260 449
174709 665218 509
617180 947352 525
384322 814096 509
437538 39743 449
194863 2523 383
668551 420566 509
100593 281436 443
709906 340425 509
740766 783107 468
