315491 423687
951431 236745
283473 682609
537332 851146
351003 710050
879203 284859
492917 963446
797495 171009
54288 152474
998259 347923
220100 874106
698026 350034
123494 374186
968154 471682
568587 776001
864264 353939
932413 422816
395211 443989
427520 861139
708383 199809
882548 597716
812145 586797
577925 991153
752339 427051
997807 710984
673219 477614
960585 379512
280528 434049
624597 606997
91918 445391
401275 300275
895513 737773
945230 994489
45915 542720
304431 725773
67686 155285
795112 709225
543668 933179
962021 828642
270724 300576
55611 692860
634452 319024
539572 303546
465012 194811
645513 83352
959782 38008
996928 523188
813336 923973
401500 650354
466658 15135
367957 459482
668434 422141
165304 695811
406394 901821
625715 83214
143703 648514
377690 499017
935466 716703
230705 869318
745427 146260
907407 85481
20763 616471
956832 252417
279852 45096
964503 696857
447427 892029
389193 562400
573528 864300
424838 369020
831270 311885
233290 12218
623201 848652
894843 246802
746938 496147
400749 848639
18650 425002
712110 708537
911070 445538
968068 715092
509205 948134
210100 991534
846231 875824
222745 28902
722081 941079
929211 939022
836339 681504
769641 723783
735753 560365
627892 165319
204438 909388
515996 364603
419510 854010
582347 932063
826436 132366
743783 40306
122601 397987
397467 593588
106779 689765
282315 399387
470928 578837
260091 928525
452729 636988
453004 436680
319477 211100
59529 1392
765975 799891
462729 862962
521097 263123
41429 348030
754748 370787
634583 186665
43804 399032
672735 694929
632124 460603
372767 30314
876686 488229
574340 870063
508406 761897
904845 907552
144501 123193
284148 412494
4275 31995
95052 527197
832703 836483
578541 405842
53207 339057
419739 547892
288209 727142
337568 583447
16015 43084
403513 951767
203456 682778
806638 273441
412303 493099
656746 541864
35088 503942
888732 347909
635873 669929
216454 600696
515452 64289
54498 343414
664895 796252
69756 277293
301094 926646
267712 438025
285485 290003
378602 899439
811944 449093
198423 628705
274066 647413
196840 767263
212330 873010
190894 17020
583115 203193
499736 465801
84567 771430
304522 949623
25569 299441
199462 306846
348923 891980
400599 237621
183093 898316
1235 63509
131462 747468
363155 563258
830734 468480
605236 912344
83037 614389
293861 557338
776843 6566
713205 974415
604147 447054
740120 901970
750698 391304
743654 798569
365109 963046
432402 494737
849135 411937
167542 924042
545326 733413
988276 774294
669081 679199
926642 394038
977543 478381
9043 456121
156887 956739
591268 752662
426244 808870
474233 489395
842984 327753
935739 323586
255662 932909
787658 274871
370187 21441
184346 440985
688448 291444
251955 967207
127032 917406
974890 449512
686974 723762
678901 964715
375482 11540
468184 841428
695018 472628
58083 290312
367544 774712
878792 962970
900816 131331
195257 439190
621568 758813
153652 226506
671307 668943
702074 242866
732239 504950
237404 533040
105278 649961
463519 109413
912568 733506
781246 12457
409130 781501
362271 231317
956332 517861
339784 677411
900316 556891
837017 428668
872904 642107
194576 501962
886731 792044
461161 891966
423593 838092
924032 913807
724305 12496
679755 235899
169846 339317
838015 68678
33894 608211
286877 275941
387529 983258
93798 272254
463936 349067
239113 397906
241048 147927
686201 261590
971006 942349
185958 5881
934396 790807
798196 937182
243774 535511
283295 738619
360767 612823
939910 423842
396527 544784
236500 646031
530109 160757
64313 176733
429997 787841
77785 102352
218866 911533
885126 174613
353460 31423
527976 155254
980092 26107
490618 884188
776779 560684
762277 988128
61637 997585
274640 636004
354367 173889
639355 481546
