777545 183587
215656 804359
971453 898618
467204 370079
80554 285816
784355 783876
761952 776766
562526 603800
940465 1635
692508 149909
445771 923654
723743 399274
358179 680555
758172 651517
859072 665084
207145 438357
306326 21676
525384 750843
488069 23636
55946 92739
711824 868648
754988 197272
761174 106368
671177 592189
731678 666189
350584 729360
118217 251662
146395 660248
330894 333511
156325 783323
436326 748511
241341 15337
861931 325173
643794 97812
468715 756029
958689 914022
501679 922651
618501 854442
973979 114738
863309 20974
86357 865754
378314 692026
21642 795411
102663 427734
423325 797315
225024 61883
290618 551280
832093 494289
52691 541003
46898 926607
828369 440180
698709 654971
198007 502771
653029 864361
996457 440142
328847 720528
501684 776469
100031 506791
796900 186249
253528 521650
978351 602380
411410 505515
761986 717280
400938 730912
491634 896333
98653 838512
905011 262838
29875 161878
68899 161199
496159 195524
255644 333353
668520 193230
71384 409350
11405 404944
759720 940636
393801 198362
365146 658074
274798 317536
913894 416368
641531 812792
754350 392248
142623 897357
62125 159854
36726 388945
163522 430208
196924 867788
649215 257601
567491 997224
972559 226180
499099 609769
613386 411160
282406 440472
155599 282498
198720 715042
487999 271421
392469 713994
455838 801016
367298 328805
746599 347386
252130 35290
361763 342485
109699 571411
595235 571991
111092 245332
46437 332484
644038 306471
388171 871118
356752 505707
350672 683324
531890 27257
58185 533698
142799 523857
580413 172898
867842 184834
621134 530099
938399 69475
659794 520547
100560 724087
173655 873269
294447 802614
318172 638693
418316 11776
488754 967912
805857 707560
982249 348672
545434 618607
19993 32098
574747 760603
267354 312824
133515 677784
296930 143873
426531 9387
381817 425279
60063 86579
550997 142325
370434 557664
907428 375431
734190 94093
416143 523095
823418 328166
729272 553913
166910 63458
566305 592562
370855 823067
508122 447771
37340 344412
741432 611828
737061 85060
148324 411337
526107 86829
730753 820438
806620 306956
806903 768917
550108 492494
200507 794121
454026 497084
262748 132669
141743 407933
102785 180456
944792 612270
822439 267220
105921 32483
931214 928712
694105 346950
164785 673619
5439 973621
25958 638406
582195 513640
851801 981304
151969 172945
164597 539385
171341 322483
656373 298528
61895 459390
973726 388175
923261 131028
733832 135396
988454 559663
444442 602684
678371 173265
606187 209674
510209 844940
349740 115939
326513 937776
56501 525399
322739 816602
905591 624400
966645 862399
103515 192272
68102 634448
465057 656669
578781 910945
739760 278943
700595 696018
655735 472945
542052 963847
388994 752438
718097 951995
625092 820780
768202 698245
271291 364851
263413 416997
457283 687713
994489 595035
991442 792639
610482 753445
418798 707609
127992 974684
850096 804395
934168 78564
456158 994802
426583 885677
725309 715867
294003 268027
706963 449016
517278 690231
467445 298142
158542 565455
819465 970330
426385 996989
970255 437244
901972 494359
591821 229198
530331 789386
840503 240818
237956 259910
386170 87866
589093 305150
756979 905440
611716 670824
767907 57047
392635 71402
690655 9009
269354 871163
455560 333373
917560 183749
28168 105982
719356 584123
49110 619516
562034 891117
461427 495047
904513 171267
756229 290818
940584 21600
582437 208085
208719 286874
292234 539716
35636 117966
49461 956629
719035 178099
