92312 889951 525
750156 322206 509
385899 203894 443
149609 304652 443
669044 506274 509
605191 399175 470
627201 542863 509
460472 760238 509
554864 733887 509
800302 508806 509
448826 684259 509
726063 175345 509
730686 645595 504
440440 899772 525
730263 770611 468
386249 599223 470
280780 723729 509
309974 898552 525
929164 67331 525
494525 486715 426
745363 828618 468
550763 45610 470
882723 427706 525
902231 513718 525
55970 201654 383
76247 733557 509
188158 585288 470
229082 29786 386
913876 236693 525
30992 335248 443
133661 875803 525
35348 578281 470
439712 569254 470
579970 461046 470
330411 798378 509
263251 93823 443
390468 507314 449
920560 225377 525
939055 971491 507
827832 256285 509
315374 761668 509
886373 208486 525
265841 86043 443
985147 782764 525
95648 384474 443
793151 458049 509
901291 847819 445
112916 99219 354
492448 37948 449
812929 284104 509
590249 907859 525
346708 739550 509
506291 504501 364
231585 975632 525
754378 492731 509
685287 26657 509
93538 473427 449
558794 17302 470
409316 118022 443
545418 755913 509
17379 975054 525
151577 619134 470
621010 340418 470
823254 447689 509
198597 549084 470
443182 664988 509
739374 303272 509
625319 675772 509
137482 659959 509
814103 376270 509
661762 789531 504
626566 979261 525
891594 901999 401
444326 143371 449
574537 920921 525
188071 537465 470
584055 996842 525
792209 33762 509
892992 92308 525
260708 828225 509
763691 898544 525
538675 998749 525
822119 375426 509
960427 418568 525
300002 109666 443
251814 678568 509
911885 720140 525
173054 756993 509
538430 695545 509
214158 190883 373
577690 199885 470
940968 227638 525
135414 136371 282
692243 220104 509
890427 655813 525
849721 307384 525
954506 661006 525
268692 351407 441
904805 707339 525
787892 223404 509
307957 165313 443
916161 473814 525
443197 177891 449
856777 992630 507
552161 768687 509
133563 180341 383
864471 974248 507
647798 532924 509
815564 501868 509
353892 108509 443
850916 950485 507
34684 330064 443
655110 581131 509
88356 962561 525
359284 716540 509
808831 700421 504
613550 490062 470
481684 305224 449
241619 360634 441
611831 852157 525
816082 192172 509
401526 968558 525
526998 995653 525
527560 473393 470
350840 38532 443
235124 794425 509
318804 624487 470
608681 823344 509
704255 810995 504
598106 808625 509
138877 783457 509
475557 362958 449
993370 802482 525
831148 70232 509
864962 214675 525
905907 369788 525
884635 372579 525
813423 87147 509
452072 196934 449
178407 309201 443
986370 90157 525
301774 935647 525
950416 746724 525
916059 191395 525
326622 219043 443
636937 479404 509
64304 488583 449
174995 75448 383
828598 695584 504
505644 101614 449
891157 223073 525
448245 414372 418
761058 261831 509
403945 815443 509
934038 168321 525
310299 349360 441
694573 745043 504
553677 920228 525
61233 239839 443
863038 304362 525
200142 584501 470
388039 836718 509
271 77206 351
112573 9018 354
595439 116510 470
63507 381796 443
470707 202595 449
119415 383052 443
639278 659234 429
708437 876476 525
286749 540516 470
787730 541175 509
658446 964892 525
751862 67624 509
780964 186561 509
435888 165831 449
246289 527292 470
656537 138149 509
364496 713752 509
283093 302894 389
305874 791604 509
839649 609795 525
320376 536723 470
111062 38212 354
882143 279006 525
455460 102706 449
861674 22390 525
683015 107489 509
399301 891056 525
819154 871751 525
894879 5212 525
926731 908814 476
71726 430060 449
899055 432164 525
880980 394713 525
668591 77252 509
295728 865697 525
491426 343731 449
268911 258933 407
223226 326317 443
449026 873884 525
489910 42344 449
826821 324950 509
644180 71593 509
388980 478677 449
757413 549997 509
377707 42108 443
516651 237183 470
540843 26637 470
944869 314751 525
704812 913451 525
205582 542448 470
611806 412636 470
964173 100865 525
648243 990606 525
158880 650324 509
853071 501576 525
124933 126158 318
813676 762755 468
107222 584470 470
985272 208624 525
837114 117159 509
393348 865276 525
373584 402152 436
558833 362383 470
948179 216611 525
559732 973745 525
846399 841263 401
923322 244370 525
589576 766044 509
55275 365258 443
929707 846969 476
185290 757511 509
997901 185362 525
129010 729839 509
418429 182879 449
824243 765138 468
838263 614579 525
353579 566214 470
37123 418191 449
728162 715521 411
366202 675888 509
752747 879320 525
940504 207629 525
142873 720388 509
256110 37437 443
17385 165668 383
838613 58457 525
555251 787219 509
974941 265106 525
