557519 935234
849220 873641
172394 911906
413900 841333
159056 572218
983627 465546
358263 318576
324748 207634
940424 1211
414723 914464
118841 478028
114227 911115
638083 708801
221839 699099
812237 898312
927338 646876
515000 664420
276377 292241
789927 458243
25619 791451
917339 266273
188640 622209
651704 439653
258786 521461
613923 557018
407666 677156
40750 429897
874125 427794
730255 603921
275969 87904
416834 717061
369336 314253
968101 474830
309915 745831
404132 730563
669535 992992
186921 776276
795645 600086
288605 892363
365460 150331
293571 211118
516599 756069
510019 583635
433353 151826
597222 184277
749631 658243
255318 300833
327436 413907
87687 307906
533616 231237
467534 426421
210329 918335
408737 812151
97445 792834
702980 341045
788429 762140
7340 459540
927820 957404
367253 396381
324063 690775
539978 326190
530657 66040
180938 277777
828003 75979
8426 933971
998918 225053
654118 878210
281210 310764
248889 503575
910589 585005
618831 259807
257455 355214
333892 896744
708713 80362
425680 238171
701944 859343
409109 100125
855929 456308
704329 658896
599582 858128
478573 791301
654508 791374
215616 231515
515837 128219
46565 171930
799202 912095
75091 528471
283256 464624
503184 984467
979471 165561
928477 614639
869587 892437
308032 470712
882720 290290
362455 545500
949814 693489
672151 185100
129663 91195
960239 412287
639963 154085
620155 605298
654621 226372
737882 930846
250733 936619
803951 740885
678911 531765
861477 393339
42804 561468
999515 978051
400189 412757
425658 334893
996398 702783
686978 703196
600414 954702
428286 672390
12424 785371
329376 817827
82872 524526
720359 20384
947439 502212
493175 208505
961558 212728
591362 685534
762817 146441
898967 865613
489166 737807
694612 7539
148425 74548
324975 341787
991545 959129
920685 599858
337827 74507
13903 584971
573432 708277
141135 334663
907608 518441
830867 268324
489336 177767
821019 158027
833907 352438
611564 221720
924836 317517
408169 998460
97980 260472
508901 144973
177848 310980
175823 547659
886168 495729
65591 725864
365295 661279
753846 535335
477392 69879
307531 603223
994312 532163
239201 805203
263018 753081
715 940810
941657 643145
125038 955641
553662 118087
931937 832015
167221 167748
130449 874033
424363 714284
589116 787875
40519 805181
450816 945162
779296 968275
377149 412249
33892 808288
819871 109311
653507 24252
601691 373529
767881 895949
122505 715841
466459 52129
319113 953220
626412 469557
486799 329231
640053 796507
921713 513195
974138 359956
492561 610661
466229 894761
162459 675913
177754 374312
264018 166311
75773 526052
789311 394219
137378 645555
4367 517512
18868 602958
243890 687669
713301 14117
810525 6730
958387 515151
660348 199078
473485 294690
750748 963049
749250 663685
922610 802163
257711 336164
938877 935181
590089 207340
297119 258154
752575 939491
890249 885893
877544 443815
840428 724438
297482 974730
234708 998849
973503 376183
172902 92962
147442 889865
243432 593233
594633 86371
551404 713469
737844 483334
721144 476131
904223 273975
474305 839742
817977 315784
45629 140930
499098 568463
596786 652026
611956 587560
802842 208247
125100 304629
778148 108986
778399 421288
681143 447827
458583 846625
289357 582226
850723 738494
228481 705379
378926 890465
474356 900874
379280 56571
281255 999036
379688 294698
431237 691793
525458 192413
685635 363229
280313 239248
71670 265374
495300 283702
667552 278387
562640 587604
389595 233971
874103 981885
803612 936061
543204 486410
579840 238083
123386 262782
80760 714279
25351 814204
45053 146361
780392 102826
778184 539347
800446 843300
530410 544132
568035 997316
181880 641441
797533 940208
478824 123092
188563 419807
747510 117257
391778 344298
223552 558046
70308 264992
606058 977719
403083 184288
774774 652455
269198 171690
582321 129377
363275 697734
171960 844409
511153 305145
587714 269369
680789 15752
671804 681827
867193 584187
695121 274602
25256 36554
653982 397838
823815 220639
742092 743862
112210 188510
432356 902284
161885 892698
553674 295480
660609 665804
358991 202276
398860 379721
588253 159816
766015 237034
331590 1883
375864 995610
186899 329020
651642 155853
