582146 97279 470
588371 237935 470
775916 666979 504
837751 943253 525
347655 442077 449
263881 261098 407
80622 235504 443
892136 407908 525
144758 419718 449
593623 726034 509
950954 477576 525
611160 381199 470
318408 944010 525
560916 651513 509
142720 832650 509
810715 56983 509
968216 802661 525
555003 67695 470
740027 388478 509
481624 24379 449
539791 588714 452
657055 206801 509
293417 990430 525
144387 693456 509
280158 391081 441
912313 770268 525
769326 572812 509
793603 166543 509
264285 482458 449
607913 323147 470
642935 575436 509
76584 230920 443
949743 492883 525
825911 116552 509
716398 558753 509
600674 398713 470
466538 807246 509
791053 888927 525
494530 380798 449
513851 169736 470
99138 175008 383
782815 446917 509
199941 549260 470
753086 943073 525
667735 770427 504
631237 76615 509
759677 611932 509
605041 253202 470
765772 191563 509
66099 85980 351
345388 698839 509
473597 256395 449
60755 136343 354
438954 29203 449
299048 579319 470
998782 643236 525
115393 743980 509
587562 413792 470
526274 847337 525
921589 402985 525
436099 840005 525
862240 941175 507
689263 98318 509
339249 115601 443
705875 573217 509
583684 581581 328
781379 210772 509
245471 697185 509
408611 182808 443
451766 34001 449
915428 96006 525
500190 774652 509
301839 883974 525
674859 371997 509
407651 529185 470
623352 115379 470
444969 110263 449
839213 926150 476
489451 925049 525
57257 787629 509
740030 600957 509
787910 703914 504
228916 171535 386
792011 977544 525
191966 71775 383
28934 897667 525
494135 884613 525
498601 638458 509
345491 457159 449
441888 281748 449
40367 697613 509
564133 398337 470
605567 962445 525
302886 549242 470
53068 448296 449
673760 401111 509
398508 414183 449
897150 889310 370
728833 377000 509
833835 7697 509
380753 646902 509
238853 355840 441
726270 699091 504
980818 532472 525
152345 914589 525
667719 828195 504
568830 165044 470
570470 440995 470
182135 565172 470
341942 614851 470
331646 471393 449
791857 684753 504
901752 466279 525
896920 695 525
194393 635876 509
300715 98706 443
175365 920568 525
789368 288768 509
692204 700020 367
616678 37430 470
602263 58902 470
96312 137244 354
746688 372459 509
578934 675612 509
359311 949629 525
788518 242403 509
809057 476281 509
504811 648712 509
540266 912305 525
747880 668404 504
697412 313657 509
945835 959541 414
199032 774068 509
48290 374629 443
960213 311063 525
185806 326553 443
553858 57008 470
269529 741371 509
847963 558347 525
875390 399636 525
59516 334769 443
863720 144662 525
225140 104955 386
447801 519171 470
304489 246701 407
843845 881014 432
4402 126560 354
210055 944149 525
940210 907806 507
313893 992857 525
935110 325407 525
254377 725124 509
99371 702793 509
610143 795451 509
828186 177644 509
584254 647780 509
10334 702499 509
73126 156057 375
549337 890909 525
99687 922902 525
764685 190973 509
719795 826151 468
362694 185475 443
336160 548527 470
444960 41494 449
335436 377456 441
456877 262214 449
101873 520053 470
69558 929810 525
754841 542571 509
735525 570680 509
407747 314090 441
61896 622881 470
352295 11000 443
204327 240580 443
334762 321842 384
200824 831392 509
9880 981319 525
536578 289911 470
733125 157787 509
259330 364343 441
83658 20321 351
649295 973058 525
897839 19445 525
788571 573976 509
137238 29856 354
371922 882128 525
615160 524014 452
754265 329329 509
462275 372201 449
539657 664795 509
224513 697661 509
982462 6693 525
655426 454717 509
93433 471940 449
590370 43231 470
621739 235265 470
771291 324563 509
18586 498379 449
128645 862175 525
78844 386263 443
820876 74282 509
204226 229947 386
282107 256476 407
134816 43797 354
635113 108999 509
555374 260214 470
89379 486333 449
198629 945762 525
362951 576057 470
939858 790141 525
742016 609419 509
905364 133060 525
123571 507825 449
802031 173922 509
274236 577460 470
515970 295399 470
582243 478504 470
525322 124323 470
779782 215941 509
825618 551981 509
469357 825673 509
875660 440779 525
800504 762705 468
537705 155341 470
312160 737390 509
107809 373549 443
781147 891242 525
310516 856617 525
898740 755604 525
566620 987183 525
734898 394422 509
933590 920558 476
243773 496674 449
865267 136621 525
514221 954490 525
340820 28514 443
75571 639766 509
972465 919155 507
331506 675071 509
417310 557713 470
113966 483922 449
790728 715595 468
424065 300990 449
807024 975109 525
658557 624570 509
57673 183861 383
8014 301666 443
178272 334063 443
256853 550258 470
