227291 284794
909165 465232
910171 987651
910659 10224
210676 505454
447586 935188
587968 280605
925011 624027
462689 38351
778847 90098
864474 723210
701904 58305
445998 946200
341907 107637
409723 103333
961484 461881
682544 907283
854149 606609
599484 152065
583451 206729
469059 225550
467514 632029
425967 762439
164580 86874
15040 251061
692971 969733
266171 897105
732851 876038
797206 503273
123800 896630
732403 574446
593021 656458
944826 219285
544779 121599
80465 771877
782330 970948
972114 661074
771396 41814
866340 834234
713835 81857
70340 323130
986903 631998
23271 534073
939209 842778
727548 297374
184023 650547
417237 754064
188551 507726
325305 938617
749063 232942
606710 991248
435164 825305
301226 288908
147463 475759
248598 515049
303625 77676
539791 347074
755619 961587
642041 140777
599659 57989
824419 605179
838408 132461
836643 275514
427212 388403
965296 881779
447027 28290
88394 576675
104539 166639
847685 22272
984884 717466
526583 957109
410463 572512
997220 652458
44060 117324
793192 27976
681562 952206
704247 461638
780049 192973
123354 609243
451145 367406
611618 456772
402701 939908
735277 547517
765410 537904
361521 913779
613500 602501
289492 142680
831514 929292
260442 644837
824814 572409
235944 573237
255897 290335
582707 101016
676296 464254
426403 41781
25428 704334
880037 28240
282024 552957
958313 21440
649995 961553
393348 9692
950850 527445
452345 626785
607357 865158
790098 250784
104178 760317
407470 469606
108955 576881
411737 251018
752773 184569
295141 883267
119773 912106
611023 772684
280788 734124
6959 965173
106597 713084
721498 259556
734318 241381
565601 20699
770965 592267
782720 846452
246109 769707
263816 441816
230037 148077
178346 991532
9478 403898
572340 679168
75200 869044
254971 133806
320989 61574
361539 694269
261875 982739
314370 697846
452778 556930
515258 712651
236232 954084
890407 722734
305629 188130
21944 500728
544242 641988
601874 381760
244369 446897
35608 654459
351870 250770
156715 244920
741927 848421
252426 732331
655668 775667
634441 117471
344071 855870
72376 771126
118862 189546
149280 421839
343443 20767
919734 998620
391515 516405
286354 112526
285340 168742
799861 222382
350537 173264
133618 87825
4246 300792
470393 674004
592783 377924
664762 806935
633312 34143
746416 308799
424695 490090
255425 424763
473991 622576
483906 42856
292463 576799
875256 658643
670971 766712
619121 464077
723318 286635
69794 744676
742772 931960
298897 793488
681866 6600
899899 812201
196767 781411
960740 723065
914043 272238
74808 756463
307541 166541
664985 989530
196310 65602
940073 454384
114800 338636
600351 11174
142008 785815
918553 17325
470426 723956
265239 136316
919599 260159
132988 758702
380450 103528
265409 350811
424557 981593
21777 388041
366552 919103
298762 878485
786913 347724
300075 741281
599572 628574
462945 110396
822571 194411
953572 319391
338537 494371
979498 682279
666710 728964
617439 196934
448225 385975
306872 588124
317805 192830
343543 497315
274657 558974
402146 225553
133137 119273
277714 432592
797530 338379
215876 627823
49882 237131
38423 394281
727120 257717
362522 190162
692086 758998
313814 677563
455990 442735
590285 923224
544848 990287
211984 230553
525948 419628
