376360 393136 436
264048 918058 525
996947 394145 525
820297 464774 509
19854 301787 443
254247 54747 443
666029 111033 509
885883 877383 401
742650 332201 509
850158 220557 525
168044 710247 509
795723 317212 509
603678 814586 509
710045 752093 424
565369 62688 470
67818 634167 509
919470 415817 525
2933 586598 470
616938 471444 470
918053 314267 525
88619 574958 470
655057 150227 509
571660 911854 525
210422 249257 443
462803 691568 509
378600 62771 443
146976 273980 443
290679 712151 509
475135 523712 470
38871 632609 509
915047 133279 525
769441 411688 509
106352 196057 383
407686 160107 443
296410 447759 449
27250 244969 443
162228 61932 383
315263 631243 509
585689 642510 509
27189 157115 383
805420 990055 525
700346 489905 509
564918 66622 470
850016 194770 525
797656 785119 468
428675 354815 449
641551 72236 509
307763 375289 441
648560 57723 509
875777 605674 525
441795 329389 449
864060 270969 525
146825 13836 375
404464 863723 525
822673 59425 509
675072 616140 509
873812 599436 525
377870 455149 449
21260 985992 525
616206 607573 447
94273 295400 443
946228 202133 525
309331 592972 470
635999 474090 509
994412 187062 525
417241 618094 470
213977 833561 509
190072 454044 449
404795 253055 441
40183 742094 509
933899 839169 476
475480 906683 525
721356 352055 509
772425 326385 509
101142 865112 525
988141 30520 525
358921 78233 443
130987 438193 449
518760 136052 470
935300 575928 525
198805 690107 509
15786 311671 443
228339 171878 386
370171 756335 509
931099 51892 525
50196 451167 449
430046 283321 449
254948 487229 449
778961 581951 509
579659 45060 470
91218 696309 509
313422 567879 470
623455 623546 266
580604 429699 470
144273 516066 470
622179 629629 509
659341 535530 509
180248 293973 443
170412 49022 383
146201 774384 509
216178 409555 443
239837 251954 368
271309 425907 449
965484 173565 525
675049 241539 509
670422 597700 509
55123 222051 386
751218 607976 509
428070 842184 525
955157 426425 525
496846 594946 470
91557 340929 443
775276 688033 504
500153 821115 509
352283 863470 525
585399 150630 470
199476 146140 383
465290 340085 449
420065 82163 449
610227 150698 470
151849 184790 383
401044 857970 525
30209 525304 470
637503 459576 509
426386 665205 509
184758 752578 509
895222 48694 525
684899 891915 525
810778 907389 525
23309 851257 525
983661 646412 525
124745 149143 375
411083 777467 509
768699 593164 509
666616 358843 509
655047 134659 509
548279 241233 470
171703 598843 470
828356 23538 509
972872 662984 525
856711 730446 525
75404 604545 470
693820 720932 504
713701 458873 509
412920 424649 418
202207 705792 509
881663 493000 525
977673 282081 525
119081 898058 525
201887 425455 449
23599 17476 282
12542 278653 443
100898 224680 386
684581 250793 509
664135 348148 509
102665 895581 525
788110 51901 509
456659 68126 449
667556 265492 509
118091 449525 449
563309 533175 452
899609 838882 445
579017 156768 470
259362 70801 443
900888 954039 507
271057 406079 441
798194 658216 504
915833 66903 525
315607 698196 509
381824 320417 441
826989 852736 525
703094 426717 509
696696 733983 504
825521 54139 509
438194 342479 449
200654 50772 383
115690 145662 375
851154 86022 525
642172 593263 509
686618 283996 509
587742 767888 509
375219 983323 525
501638 412850 444
963241 930917 507
434382 856354 525
847270 492826 525
540864 235362 470
991024 943420 458
759721 671225 504
530709 724702 509
101438 990636 525
258054 862525 525
507179 964780 525
662562 249008 509
717380 910470 525
605620 133713 470
590209 600102 403
680650 793649 504
774295 738226 468
322805 38083 443
339235 305143 384
360074 658610 509
35417 939917 525
594020 719695 509
793790 92681 509
304194 825206 509
743092 605296 509
755267 10801 509
968020 700540 525
154917 208918 383
89643 946816 525
498824 427768 444
836152 980296 525
789870 86635 509
164234 239737 443
130486 578752 470
629944 894253 525
971326 971394 290
