376360 393136
264048 918058
996947 394145
820297 464774
19854 301787
254247 54747
666029 111033
885883 877383
742650 332201
850158 220557
168044 710247
795723 317212
603678 814586
710045 752093
565369 62688
67818 634167
919470 415817
2933 586598
616938 471444
918053 314267
88619 574958
655057 150227
571660 911854
210422 249257
462803 691568
378600 62771
146976 273980
290679 712151
475135 523712
38871 632609
915047 133279
769441 411688
106352 196057
407686 160107
296410 447759
27250 244969
162228 61932
315263 631243
585689 642510
27189 157115
805420 990055
700346 489905
564918 66622
850016 194770
797656 785119
428675 354815
641551 72236
307763 375289
648560 57723
875777 605674
441795 329389
864060 270969
146825 13836
404464 863723
822673 59425
675072 616140
873812 599436
377870 455149
21260 985992
616206 607573
94273 295400
946228 202133
309331 592972
635999 474090
994412 187062
417241 618094
213977 833561
190072 454044
404795 253055
40183 742094
933899 839169
475480 906683
721356 352055
772425 326385
101142 865112
988141 30520
358921 78233
130987 438193
518760 136052
935300 575928
198805 690107
15786 311671
228339 171878
370171 756335
931099 51892
50196 451167
430046 283321
254948 487229
778961 581951
579659 45060
91218 696309
313422 567879
623455 623546
580604 429699
144273 516066
622179 629629
659341 535530
180248 293973
170412 49022
146201 774384
216178 409555
239837 251954
271309 425907
965484 173565
675049 241539
670422 597700
55123 222051
751218 607976
428070 842184
955157 426425
496846 594946
91557 340929
775276 688033
500153 821115
352283 863470
585399 150630
199476 146140
465290 340085
420065 82163
610227 150698
151849 184790
401044 857970
30209 525304
637503 459576
426386 665205
184758 752578
895222 48694
684899 891915
810778 907389
23309 851257
983661 646412
124745 149143
411083 777467
768699 593164
666616 358843
655047 134659
548279 241233
171703 598843
828356 23538
972872 662984
856711 730446
75404 604545
693820 720932
713701 458873
412920 424649
202207 705792
881663 493000
977673 282081
119081 898058
201887 425455
23599 17476
12542 278653
100898 224680
684581 250793
664135 348148
102665 895581
788110 51901
456659 68126
667556 265492
118091 449525
563309 533175
899609 838882
579017 156768
259362 70801
900888 954039
271057 406079
798194 658216
915833 66903
315607 698196
381824 320417
826989 852736
703094 426717
696696 733983
825521 54139
438194 342479
200654 50772
115690 145662
851154 86022
642172 593263
686618 283996
587742 767888
375219 983323
501638 412850
963241 930917
434382 856354
847270 492826
540864 235362
991024 943420
759721 671225
530709 724702
101438 990636
258054 862525
507179 964780
662562 249008
717380 910470
605620 133713
590209 600102
680650 793649
774295 738226
322805 38083
339235 305143
360074 658610
35417 939917
594020 719695
793790 92681
304194 825206
743092 605296
755267 10801
968020 700540
154917 208918
89643 946816
498824 427768
836152 980296
789870 86635
164234 239737
130486 578752
629944 894253
971326 971394
