909388 72962 525
747798 650695 504
536503 941348 525
57194 389109 443
977003 528622 525
390995 998505 525
559261 518357 452
483900 535386 470
590276 924536 525
468477 304788 449
11469 856853 525
208170 964360 525
741689 847334 525
157618 970319 525
49971 280848 443
70345 259852 443
96475 470467 449
234396 815275 509
243852 178040 443
544127 605883 452
473234 283867 449
386926 63133 443
481035 954853 525
964449 840276 507
975749 393025 525
972936 236003 525
812919 905921 525
340723 817848 509
692755 292201 509
658019 564233 509
521621 839360 525
230448 770271 509
459453 57439 449
988114 482912 525
28185 778468 509
995428 878507 507
234616 578858 470
786062 915907 525
720979 109277 509
560919 167745 470
623831 766727 509
440184 47570 449
334009 712467 509
502513 889030 525
823429 516035 509
360179 316667 441
295078 296987 358
436960 718327 509
992161 611545 525
603766 621991 447
203279 367928 443
49098 789533 509
743456 914934 525
236382 70350 443
510015 819697 509
71501 938956 525
413571 413237 268
164071 332353 443
794746 111657 509
591021 201874 470
8042 25173 282
248110 95394 443
191127 49983 383
262586 127637 443
859763 273891 525
898723 936071 476
802670 334104 509
924597 902009 476
395866 20671 443
828761 560787 509
136385 627525 509
767820 235409 509
530062 397678 470
797799 697151 504
7331 803502 509
437596 587951 470
886940 130447 525
672086 16882 509
152263 972048 525
712940 464045 509
906758 795426 525
71212 669494 509
969204 100619 525
356830 730451 509
535484 308218 470
851368 288307 525
998792 125849 525
659142 944713 525
801760 924278 525
860403 463667 525
287741 249636 407
6059 165617 383
225528 608723 470
423846 863921 525
322925 30784 443
84448 973382 525
496000 167475 449
504428 246674 449
731313 878198 525
426300 26273 449
718970 224233 509
339731 54819 443
330666 75535 443
770209 786129 437
759569 214056 509
368586 762368 509
816637 998507 525
998149 811592 525
137909 907358 525
596520 116420 470
578212 898866 525
681857 868259 525
316243 860302 525
423575 223990 449
647762 291692 509
268147 625672 470
744721 553604 509
572781 324210 470
917864 276496 525
588859 177024 470
475658 564386 470
309097 535852 470
314791 114079 443
589669 117963 470
482778 887420 525
564915 18597 470
171983 813870 509
956174 872051 507
450711 549624 470
733898 1453 509
244029 441171 449
325703 807092 509
421081 742655 509
688905 516102 509
138532 734419 509
822848 882892 525
482791 837846 525
924819 457391 525
540517 799629 509
359985 37850 443
423500 999340 525
814660 103808 509
687035 302337 509
728990 920825 525
806702 767518 468
101925 33137 351
931565 541106 525
297068 904427 525
223671 586448 470
275539 2105 443
365809 923106 525
802509 298739 509
897758 770938 525
125450 505926 449
897373 713977 525
628561 79064 509
936643 789497 525
89785 441537 449
700898 238374 509
416402 132130 449
582787 682005 509
301985 702649 509
677924 49530 509
293864 113906 443
372690 449328 449
655823 398063 509
757640 295157 509
682280 795472 504
678355 590530 509
886738 117819 525
824973 580204 509
63880 928775 525
611797 863950 525
468766 179328 449
168755 441699 449
995238 401364 525
911956 66863 525
49653 905443 525
104346 419570 449
838120 546027 525
553148 389997 470
208297 345702 443
206303 490645 449
909929 817543 525
833614 139826 509
173644 767880 509
527080 285108 470
415563 382244 449
490232 860787 525
909275 766845 525
710659 110351 509
206763 467510 449
79035 521903 470
422458 919503 525
582425 270768 470
884111 108484 525
997700 830691 525
875104 190027 525
103491 589890 470
868970 399538 525
922100 125870 525
140411 972678 525
733394 509688 509
815145 6707 509
736991 855021 525
966779 569947 525
484136 356598 449
416265 635968 509
499842 477127 426
838019 335978 525
969102 474269 525
885418 417398 525
601068 769494 509
1932 353936 443
558424 543319 452
110069 653737 509
100304 103211 310
978503 331414 525
730207 275749 509
606859 506837 470
474675 694357 509
705001 100112 509
681063 623699 509
793240 434778 509
465865 420880 444
178343 102644 383
694832 188081 509
438260 278189 449
74786 923979 525
985965 256594 525
949928 829424 525
410035 152867 449
461697 803595 509
578259 795935 509
174391 516723 470
812226 54837 509
858116 334181 525
180582 406426 443
540582 101109 470
437765 237158 449
955302 860576 507
46768 402983 443
251754 248830 350
630919 630587 310
802962 714474 468
817073 975230 525
450012 62343 449
928003 278017 525
681406 250530 509
547673 32422 470
910640 779591 525
192555 350528 443
111996 704504 509
320086 125369 443
854094 593263 525
61949 233889 443
463485 840850 525
511470 803708 509
125338 181858 383
131004 297982 443
635155 414744 509
121169 34499 354
151803 475103 449
391636 630771 509
732922 905715 525
265408 731212 509
503134 7528 449
833309 679873 504
244594 763343 509
590909 750352 509
674846 520515 509
511416 463394 426
177396 660733 509
636324 755094 504
