30227 9040
3195 32071
81057 55131
77669 24169
69185 37782
17464 58616
74811 39947
20177 63218
61999 2102
73626 40051
67297 65820
44347 92126
37396 48396
1133 40652
9630 11660
13184 55696
55210 7526
68574 34005
6623 89934
60746 83570
78697 29332
7396 16435
92021 93685
48630 4629
11671 6553
98886 30035
5078 35592
15633 94552
97482 35743
97337 67961
62823 45375
76976 98962
19675 51497
90153 45463
38127 89287
66312 85668
43690 92171
71285 50181
28351 14592
77137 34758
92923 6691
45798 57768
24196 26050
18924 73590
90302 79362
91600 90974
74654 20396
59676 25574
17200 73863
41448 78448
20466 63939
90403 78782
41893 71816
48905 97468
29957 81182
4686 4660
61235 77632
9611 3460
91399 48738
98994 56631
32684 43441
22262 87218
5265 74920
41307 6995
72669 27361
11295 65002
35083 36754
20944 22002
84302 984
73095 33289
51417 88559
56949 27719
20651 1376
15767 98558
65031 4628
52734 54265
38662 61696
92954 7728
68278 75260
9451 33166
48562 9851
71099 37589
83915 11246
38810 93480
74385 59030
18978 58461
20434 64235
36131 6640
32529 8356
55204 93627
26795 3821
75717 43710
68349 61603
38609 81085
47163 13723
62619 71246
61498 64148
47393 64522
29131 8706
83271 18559
50634 40117
1212 40093
9118 98318
20821 45604
60075 20817
6640 16038
83537 36555
24117 70847
29783 68416
94265 2771
3347 27588
17819 81713
74790 31257
22736 13270
34586 1980
57445 21851
84692 98033
87096 15178
33921 41178
30938 76865
94162 47849
43271 50122
17201 63954
56738 76651
77061 71481
27147 19910
64202 71291
22186 75036
1502 75497
54246 94311
94688 62746
95385 48410
42173 84751
86053 6924
5075 96514
64903 69088
30596 32762
39417 8141
89588 3604
57111 25345
71361 37173
65754 44896
34932 28660
18010 14321
19238 76028
91050 35722
30745 18847
81174 58840
92068 12805
4814 94671
19598 12931
73277 74899
81690 38952
96993 34433
12900 33631
4841 87580
54692 92589
79706 1600
32132 45487
96011 36585
40449 58584
21481 2193
20734 51462
35651 39178
55277 88126
33809 23299
82879 34056
89208 10300
56843 63477
88825 53201
3024 31781
83362 47446
20199 57508
29569 37310
75639 22557
52939 85683
94823 38308
3364 43861
39901 13
83724 65632
59648 69173
5410 43387
42795 24204
40000 63768
26088 25206
27985 71085
54295 29080
37088 35604
95102 970
78765 82529
56407 1449
40832 10935
78742 13388
55490 27743
85223 2034
513 99533
14387 41830
88344 34417
44722 98397
39437 4645
11460 48342
50356 8273
9607 81627
17878 17480
79055 50822
86491 21930
62377 40023
56237 46264
22480 17007
94511 49503
14472 41290
39118 75990
51306 23040
66850 94204
50750 20214
51117 53155
338 76000
64967 14572
7044 80861
97803 98308
58764 42883
38358 45058
40589 53823
69673 99141
33255 55458
67262 5761
62241 16644
25557 48551
65829 61997
67220 67447
6682 41083
10755 85651
72426 86087
9326 98184
47503 29865
37681 81857
65131 42994
34946 83030
39286 52490
28088 97990
51701 81525
58654 36217
7301 72782
55637 50032
27619 23557
86713 15446
2029 26689
18606 67253
7032 48006
8648 64485
